C:\Users\edmundas.virsila\workspace\ToDoTasks\src\main\java\DBConstants\DBConstants.java
C:\Users\edmundas.virsila\workspace\ToDoTasks\src\main\java\DBConstants\DBDriver.java
C:\Users\edmundas.virsila\workspace\ToDoTasks\src\main\java\objectCheck\CheckObjectsName.java
C:\Users\edmundas.virsila\workspace\ToDoTasks\src\main\java\objectCheck\CheckObjectValidation.java
C:\Users\edmundas.virsila\workspace\ToDoTasks\src\main\java\repositoryWrite\InsertObjectToDB.java
C:\Users\edmundas.virsila\workspace\ToDoTasks\src\main\java\printPlainText\TextWritingToFile.java
C:\Users\edmundas.virsila\workspace\ToDoTasks\src\main\java\toolsForDurationType\CheckIfDurationIsCorrect.java
C:\Users\edmundas.virsila\workspace\ToDoTasks\src\main\java\input\UserInput.java
C:\Users\edmundas.virsila\workspace\ToDoTasks\src\main\java\toolsForDateType\AddDurationToDate.java
C:\Users\edmundas.virsila\workspace\ToDoTasks\src\main\java\objectBodies\ToDoTaskInterface.java
C:\Users\edmundas.virsila\workspace\ToDoTasks\src\main\java\input\UserKeyboardInput.java
C:\Users\edmundas.virsila\workspace\ToDoTasks\src\main\java\printPlainText\PrintText.java
C:\Users\edmundas.virsila\workspace\ToDoTasks\src\main\java\mainMenuCases\MainMenuCases.java
C:\Users\edmundas.virsila\workspace\ToDoTasks\src\main\java\toolsForDateType\TwoDatesCollisionCheck.java
C:\Users\edmundas.virsila\workspace\ToDoTasks\src\main\java\toolsForDurationType\ParseDuration.java
C:\Users\edmundas.virsila\workspace\ToDoTasks\src\main\java\CollectData\CollectDataFromSQL.java
C:\Users\edmundas.virsila\workspace\ToDoTasks\src\main\java\objectBodies\Meeting.java
C:\Users\edmundas.virsila\workspace\ToDoTasks\src\main\java\startMenu\StartMenu.java
C:\Users\edmundas.virsila\workspace\ToDoTasks\src\main\java\printPlainText\TextMenuSelection.java
C:\Users\edmundas.virsila\workspace\ToDoTasks\src\main\java\repositoryEdit\ChangeParameter.java
C:\Users\edmundas.virsila\workspace\ToDoTasks\src\main\java\toolsForDateType\CheckIfTimeDoesntCollideWithOtherTime.java
C:\Users\edmundas.virsila\workspace\ToDoTasks\src\main\java\repositoryEdit\RemoveLineFromFile.java
C:\Users\edmundas.virsila\workspace\ToDoTasks\src\main\java\objectBodies\Reminder.java
C:\Users\edmundas.virsila\workspace\ToDoTasks\src\main\java\toolsForDateType\CheckIfDateIsCorrect.java
C:\Users\edmundas.virsila\workspace\ToDoTasks\src\main\java\toolsForDateType\ParseDate.java
C:\Users\edmundas.virsila\workspace\ToDoTasks\src\main\java\repositoryEdit\EditTask.java
C:\Users\edmundas.virsila\workspace\ToDoTasks\src\main\java\objectBodies\ReserveTime.java
C:\Users\edmundas.virsila\workspace\ToDoTasks\src\main\java\mainMenuCases\AddToCases.java
C:\Users\edmundas.virsila\workspace\ToDoTasks\src\main\java\objectBodies\ToDoTaskData.java
C:\Users\edmundas.virsila\workspace\ToDoTasks\src\main\java\repositoryRead\PrintInfoFromDB.java
C:\Users\edmundas.virsila\workspace\ToDoTasks\src\main\java\objectBodies\ToDoTask.java
C:\Users\edmundas.virsila\workspace\ToDoTasks\src\main\java\toolsForDateType\CheckIfDateIsntOld.java
C:\Users\edmundas.virsila\workspace\ToDoTasks\src\main\java\mainMenuCases\PrintFromDBCases.java
C:\Users\edmundas.virsila\workspace\ToDoTasks\src\main\java\repositoryRemove\RemoveLineFromFile.java
C:\Users\edmundas.virsila\workspace\ToDoTasks\src\main\java\application\Main.java
C:\Users\edmundas.virsila\workspace\ToDoTasks\src\main\java\CollectData\CollectDataForSQL.java
C:\Users\edmundas.virsila\workspace\ToDoTasks\src\main\java\mainMenuCases\ChangeTaskDataCases.java
C:\Users\edmundas.virsila\workspace\ToDoTasks\src\main\java\printPlainText\TextChangeTaskData.java
